A Minimal Book Example
…
7.2.5 visualización de predicciones

Para visualizar las predicciones de nuestro modelo se puede usar abline como se hizo anteirormente. Una manera más general de hacerlo es primero generar una gradilla regular sobre la región donde se encuentran nuestros datos. La manera más fácil de hacer esto es usando la función data_grid() del paquete modelr. Su primer argumento es un data frame y para cada argumento subsecuente encuentra valores únicos y genera todas las combinaciones:

gradilla <- esperanza_ingreso %>% 
            data_grid(GNI_capita_2010) 

gradilla
#> # A tibble: 155 x 1
#>    GNI_capita_2010
#>              <dbl>
#>  1             440
#>  2             540
#>  3             580
#>  4             720
#>  5             780
#>  6             820
#>  7             860
#>  8             900
#>  9             950
#> 10             990
#> # ... with 145 more rows

Luego se pueden agregar predicciones, esto se hace con la función add_predictions(). Las agrega a una nueva columna del data frame.

gradilla <- gradilla %>% 
            add_predictions(modelo) 

gradilla
#> # A tibble: 155 x 2
#>    GNI_capita_2010  pred
#>              <dbl> <dbl>
#>  1             440  50.3
#>  2             540  50.3
#>  3             580  50.3
#>  4             720  50.4
#>  5             780  50.4
#>  6             820  50.4
#>  7             860  50.4
#>  8             900  50.4
#>  9             950  50.4
#> 10             990  50.4
#> # ... with 145 more rows
…
