A Minimal Book Example
…
Leer datos en R.

3.2 El operador pipeline %>%

El ejercicio 3 de la tarea nos introduce a lo tedioso que es aplicar varias funciones para transformar datos una tras otra sin ayuda. Aquí es cuando el operador pipeline entra en acción:

Nos permite encadenar operaciones de manera sencilla, comenzando por el data frame original (diamonds), luego aplicar una transformación, al resultado aplicar otra y así sucesivamente.

Retomemos el ejemplo de la tarea 3. En lugar de:

diamonds_dollars_per_carat <- mutate(diamonds, dollars_per_carat = price / carat)
diamonds_dollars_per_carat

## # A tibble: 53,940 x 11
##    carat       cut color clarity depth table price     x     y     z
##    <dbl>     <ord> <ord>   <ord> <dbl> <dbl> <int> <dbl> <dbl> <dbl>
##  1  0.23     Ideal     E     SI2  61.5    55   326  3.95  3.98  2.43
##  2  0.21   Premium     E     SI1  59.8    61   326  3.89  3.84  2.31
##  3  0.23      Good     E     VS1  56.9    65   327  4.05  4.07  2.31
##  4  0.29   Premium     I     VS2  62.4    58   334  4.20  4.23  2.63
##  5  0.31      Good     J     SI2  63.3    58   335  4.34  4.35  2.75
##  6  0.24 Very Good     J    VVS2  62.8    57   336  3.94  3.96  2.48
##  7  0.24 Very Good     I    VVS1  62.3    57   336  3.95  3.98  2.47
##  8  0.26 Very Good     H     SI1  61.9    55   337  4.07  4.11  2.53
##  9  0.22      Fair     E     VS2  65.1    61   337  3.87  3.78  2.49
## 10  0.23 Very Good     H     VS1  59.4    61   338  4.00  4.05  2.39
## # ... with 53,930 more rows, and 1 more variables: dollars_per_carat <dbl>

diamonds_dollars_per_carat_filtrado <- filter(diamonds_dollars_per_carat, dollars_per_carat < 4000)
diamonds_dollars_per_carat_filtrado

## # A tibble: 32,083 x 11
##    carat       cut color clarity depth table price     x     y     z
##    <dbl>     <ord> <ord>   <ord> <dbl> <dbl> <int> <dbl> <dbl> <dbl>
##  1  0.23     Ideal     E     SI2  61.5    55   326  3.95  3.98  2.43
##  2  0.21   Premium     E     SI1  59.8    61   326  3.89  3.84  2.31
##  3  0.23      Good     E     VS1  56.9    65   327  4.05  4.07  2.31
##  4  0.29   Premium     I     VS2  62.4    58   334  4.20  4.23  2.63
##  5  0.31      Good     J     SI2  63.3    58   335  4.34  4.35  2.75
##  6  0.24 Very Good     J    VVS2  62.8    57   336  3.94  3.96  2.48
##  7  0.24 Very Good     I    VVS1  62.3    57   336  3.95  3.98  2.47
##  8  0.26 Very Good     H     SI1  61.9    55   337  4.07  4.11  2.53
##  9  0.22      Fair     E     VS2  65.1    61   337  3.87  3.78  2.49
## 10  0.23 Very Good     H     VS1  59.4    61   338  4.00  4.05  2.39
## # ... with 32,073 more rows, and 1 more variables: dollars_per_carat <dbl>

diamonds_dollars_per_carat_filtrado_ordenado <- arrange(diamonds_dollars_per_carat_filtrado, desc(dollars_per_carat))
diamonds_dollars_per_carat_filtrado_ordenado

## # A tibble: 32,083 x 11
##    carat       cut color clarity depth table price     x     y     z
##    <dbl>     <ord> <ord>   <ord> <dbl> <dbl> <int> <dbl> <dbl> <dbl>
##  1  1.05 Very Good     J     SI1  62.5    58  4199  6.47  6.52  4.06
##  2  0.92 Very Good     E     SI2  63.2    54  3679  6.29  6.25  3.96
##  3  0.92   Premium     E     SI2  61.8    59  3679  6.19  6.11  3.80
##  4  0.91   Premium     E     SI2  61.1    59  3639  6.24  6.20  3.80
##  5  0.91   Premium     E     SI2  62.8    61  3639  6.09  6.07  3.82
##  6  0.90   Premium     E     SI2  62.6    60  3599  6.18  6.09  3.84
##  7  0.90   Premium     E     SI2  62.2    60  3599  6.19  6.15  3.84
##  8  0.90     Ideal     E     SI2  62.0    55  3599  6.23  6.15  3.84
##  9  1.51   Premium     H      I1  61.9    58  6038  7.39  7.34  4.56
## 10  0.74      Fair     G    VVS2  65.2    58  2959  5.70  5.60  3.69
## # ... with 32,073 more rows, and 1 more variables: dollars_per_carat <dbl>

El ejemplo de la tarea 3 queda:

diamonds %>% # Comenzando con el df diamonds:
  mutate(dollars_per_carat = price / carat) %>% # Calcúlame la variable dollars per carat ... LUEGO
  filter(dollars_per_carat < 4000) %>% # Seleccióname los registros en que la variable dollars_per_carat < 4000 LUEGO
  arrange(desc(dollars_per_carat)) # Ordéname en orden descendente por la variable dollars per carat

## # A tibble: 32,083 x 11
##    carat       cut color clarity depth table price     x     y     z
##    <dbl>     <ord> <ord>   <ord> <dbl> <dbl> <int> <dbl> <dbl> <dbl>
##  1  1.05 Very Good     J     SI1  62.5    58  4199  6.47  6.52  4.06
##  2  0.92 Very Good     E     SI2  63.2    54  3679  6.29  6.25  3.96
##  3  0.92   Premium     E     SI2  61.8    59  3679  6.19  6.11  3.80
##  4  0.91   Premium     E     SI2  61.1    59  3639  6.24  6.20  3.80
##  5  0.91   Premium     E     SI2  62.8    61  3639  6.09  6.07  3.82
##  6  0.90   Premium     E     SI2  62.6    60  3599  6.18  6.09  3.84
##  7  0.90   Premium     E     SI2  62.2    60  3599  6.19  6.15  3.84
##  8  0.90     Ideal     E     SI2  62.0    55  3599  6.23  6.15  3.84
##  9  1.51   Premium     H      I1  61.9    58  6038  7.39  7.34  4.56
## 10  0.74      Fair     G    VVS2  65.2    58  2959  5.70  5.60  3.69
## # ... with 32,073 more rows, and 1 more variables: dollars_per_carat <dbl>

Podemos también asignar el resultado de TODAS las transformaciones anteriores a una variable

diamonds_transformado_1 <- diamonds %>%
  mutate(dollars_per_carat = price / carat) %>%
  filter(dollars_per_carat < 4000) %>%
  arrange(desc(dollars_per_carat))
diamonds_transformado_1

## # A tibble: 32,083 x 11
##    carat       cut color clarity depth table price     x     y     z
##    <dbl>     <ord> <ord>   <ord> <dbl> <dbl> <int> <dbl> <dbl> <dbl>
##  1  1.05 Very Good     J     SI1  62.5    58  4199  6.47  6.52  4.06
##  2  0.92 Very Good     E     SI2  63.2    54  3679  6.29  6.25  3.96
##  3  0.92   Premium     E     SI2  61.8    59  3679  6.19  6.11  3.80
##  4  0.91   Premium     E     SI2  61.1    59  3639  6.24  6.20  3.80
##  5  0.91   Premium     E     SI2  62.8    61  3639  6.09  6.07  3.82
##  6  0.90   Premium     E     SI2  62.6    60  3599  6.18  6.09  3.84
##  7  0.90   Premium     E     SI2  62.2    60  3599  6.19  6.15  3.84
##  8  0.90     Ideal     E     SI2  62.0    55  3599  6.23  6.15  3.84
##  9  1.51   Premium     H      I1  61.9    58  6038  7.39  7.34  4.56
## 10  0.74      Fair     G    VVS2  65.2    58  2959  5.70  5.60  3.69
## # ... with 32,073 more rows, and 1 more variables: dollars_per_carat <dbl>
…
Calcular el mínimo de x, y también el máximo de y.

Al resultado ordenarlo por color de manera descendente.

diamonds_transformado_2 <- diamonds %>%
  # Primero agrupo por combinación de cut y color, ya que lo necesito para calcular
  # los resúmenes por grupo
  group_by(cut, color) %>%
  # Luego calculo los resúmenes por grupo
  summarise(minimo_x = min(x), maximo_y = max(y)) %>%
  # Finalmente ordeno por color
  arrange(desc(color))
diamonds_transformado_2

## # A tibble: 35 x 4
## # Groups:   cut [5]
##          cut color minimo_x maximo_y
##        <ord> <ord>    <dbl>    <dbl>
##  1      Fair     J     4.24    10.54
##  2      Good     J     4.22     9.19
##  3 Very Good     J     3.94     8.93
##  4   Premium     J     4.22     9.94
##  5     Ideal     J     3.93     9.20
##  6      Fair     I     4.62     9.02
##  7      Good     I     4.19     9.31
##  8 Very Good     I     3.95     9.94
##  9   Premium     I     3.97    10.10
## 10     Ideal     I     3.94     9.42
## # ... with 25 more rows
…
