A Minimal Book Example
…
# View(diamonds) # Para ver el data frame en formato de Excel.

diamonds_columnas_selectas <- select(diamonds, carat, cut)
diamonds_columnas_selectas

## # A tibble: 53,940 x 2
##    carat cut      
##    <dbl> <ord>    
##  1 0.23  Ideal    
##  2 0.21  Premium  
##  3 0.23  Good     
##  4 0.290 Premium  
##  5 0.31  Good     
##  6 0.24  Very Good
##  7 0.24  Very Good
##  8 0.26  Very Good
##  9 0.22  Fair     
## 10 0.23  Very Good
## # ... with 53,930 more rows

# Otras maneras de seleccionar columnas:
select(diamonds, starts_with("c"))

## # A tibble: 53,940 x 4
##    carat cut       color clarity
##    <dbl> <ord>     <ord> <ord>  
##  1 0.23  Ideal     E     SI2    
##  2 0.21  Premium   E     SI1    
##  3 0.23  Good      E     VS1    
##  4 0.290 Premium   I     VS2    
##  5 0.31  Good      J     SI2    
##  6 0.24  Very Good J     VVS2   
##  7 0.24  Very Good I     VVS1   
##  8 0.26  Very Good H     SI1    
##  9 0.22  Fair      E     VS2    
## 10 0.23  Very Good H     VS1    
## # ... with 53,930 more rows

select(diamonds, contains("able"))

## # A tibble: 53,940 x 1
##    table
##    <dbl>
##  1    55
##  2    61
##  3    65
##  4    58
##  5    58
##  6    57
##  7    57
##  8    55
##  9    61
## 10    61
## # ... with 53,930 more rows

select(diamonds, -carat, -cut, -color)

## # A tibble: 53,940 x 7
##    clarity depth table price     x     y     z
##    <ord>   <dbl> <dbl> <int> <dbl> <dbl> <dbl>
##  1 SI2      61.5    55   326  3.95  3.98  2.43
##  2 SI1      59.8    61   326  3.89  3.84  2.31
##  3 VS1      56.9    65   327  4.05  4.07  2.31
##  4 VS2      62.4    58   334  4.2   4.23  2.63
##  5 SI2      63.3    58   335  4.34  4.35  2.75
##  6 VVS2     62.8    57   336  3.94  3.96  2.48
##  7 VVS1     62.3    57   336  3.95  3.98  2.47
##  8 SI1      61.9    55   337  4.07  4.11  2.53
##  9 VS2      65.1    61   337  3.87  3.78  2.49
## 10 VS1      59.4    61   338  4     4.05  2.39
## # ... with 53,930 more rows
…
2.5.2 2. Filtrar registros de un data frame que cumplen cierta condición: filter(df, condiciones)

diamonds_registros_selectos <- filter(diamonds, cut == "Ideal", x > 4)
diamonds_registros_selectos

## # A tibble: 21,449 x 10
##    carat cut   color clarity depth table price     x     y     z
##    <dbl> <ord> <ord> <ord>   <dbl> <dbl> <int> <dbl> <dbl> <dbl>
##  1  0.31 Ideal J     SI2      62.2    54   344  4.35  4.37  2.71
##  2  0.3  Ideal I     SI2      62      54   348  4.31  4.34  2.68
##  3  0.33 Ideal I     SI2      61.8    55   403  4.49  4.51  2.78
##  4  0.33 Ideal I     SI2      61.2    56   403  4.49  4.5   2.75
##  5  0.33 Ideal J     SI1      61.1    56   403  4.49  4.55  2.76
##  6  0.32 Ideal I     SI1      60.9    55   404  4.45  4.48  2.72
##  7  0.3  Ideal I     SI2      61      59   405  4.3   4.33  2.63
##  8  0.35 Ideal I     VS1      60.9    57   552  4.54  4.59  2.78
##  9  0.3  Ideal D     SI1      62.5    57   552  4.29  4.32  2.69
## 10  0.3  Ideal D     SI1      62.1    56   552  4.3   4.33  2.68
## # ... with 21,439 more rows

# Otras maneras de filtrar registros
filter(diamonds, cut == "Ideal" & x > 4)

## # A tibble: 21,449 x 10
##    carat cut   color clarity depth table price     x     y     z
##    <dbl> <ord> <ord> <ord>   <dbl> <dbl> <int> <dbl> <dbl> <dbl>
##  1  0.31 Ideal J     SI2      62.2    54   344  4.35  4.37  2.71
##  2  0.3  Ideal I     SI2      62      54   348  4.31  4.34  2.68
##  3  0.33 Ideal I     SI2      61.8    55   403  4.49  4.51  2.78
##  4  0.33 Ideal I     SI2      61.2    56   403  4.49  4.5   2.75
##  5  0.33 Ideal J     SI1      61.1    56   403  4.49  4.55  2.76
##  6  0.32 Ideal I     SI1      60.9    55   404  4.45  4.48  2.72
##  7  0.3  Ideal I     SI2      61      59   405  4.3   4.33  2.63
##  8  0.35 Ideal I     VS1      60.9    57   552  4.54  4.59  2.78
##  9  0.3  Ideal D     SI1      62.5    57   552  4.29  4.32  2.69
## 10  0.3  Ideal D     SI1      62.1    56   552  4.3   4.33  2.68
## # ... with 21,439 more rows

filter(diamonds, cut == "Ideal" | x > 4)

## # A tibble: 53,546 x 10
##    carat cut       color clarity depth table price     x     y     z
##    <dbl> <ord>     <ord> <ord>   <dbl> <dbl> <int> <dbl> <dbl> <dbl>
##  1 0.23  Ideal     E     SI2      61.5    55   326  3.95  3.98  2.43
##  2 0.23  Good      E     VS1      56.9    65   327  4.05  4.07  2.31
##  3 0.290 Premium   I     VS2      62.4    58   334  4.2   4.23  2.63
##  4 0.31  Good      J     SI2      63.3    58   335  4.34  4.35  2.75
##  5 0.26  Very Good H     SI1      61.9    55   337  4.07  4.11  2.53
##  6 0.3   Good      J     SI1      64      55   339  4.25  4.28  2.73
##  7 0.23  Ideal     J     VS1      62.8    56   340  3.93  3.9   2.46
##  8 0.31  Ideal     J     SI2      62.2    54   344  4.35  4.37  2.71
##  9 0.32  Premium   E     I1       60.9    58   345  4.38  4.42  2.68
## 10 0.3   Ideal     I     SI2      62      54   348  4.31  4.34  2.68
## # ... with 53,536 more rows
…
2.5.3 3. Ordenar registros de un data frame por los valores en una o más variables: arrange(df, variables_de_ordenamiento)

diamonds_ordenado <- arrange(diamonds, carat, depth)
diamonds_ordenado

## # A tibble: 53,940 x 10
##    carat cut     color clarity depth table price     x     y     z
##    <dbl> <ord>   <ord> <ord>   <dbl> <dbl> <int> <dbl> <dbl> <dbl>
##  1   0.2 Premium E     VS2      59      60   367  3.81  3.78  2.24
##  2   0.2 Premium E     VS2      59.7    62   367  3.84  3.8   2.28
##  3   0.2 Ideal   E     VS2      59.7    55   367  3.86  3.84  2.3 
##  4   0.2 Premium E     VS2      59.8    62   367  3.79  3.77  2.26
##  5   0.2 Premium E     SI2      60.2    62   345  3.79  3.75  2.27
##  6   0.2 Premium E     VS2      61.1    59   367  3.81  3.78  2.32
##  7   0.2 Ideal   D     VS2      61.5    57   367  3.81  3.77  2.33
##  8   0.2 Premium D     VS2      61.7    60   367  3.77  3.72  2.31
##  9   0.2 Ideal   E     VS2      62.2    57   367  3.76  3.73  2.33
## 10   0.2 Premium D     VS2      62.3    60   367  3.73  3.68  2.31
## # ... with 53,930 more rows

# desc(variable): ordena en sentido decreciente (Z-A), (mayor a menor, etc)
arrange(diamonds, carat, desc(depth))

## # A tibble: 53,940 x 10
##    carat cut       color clarity depth table price     x     y     z
##    <dbl> <ord>     <ord> <ord>   <dbl> <dbl> <int> <dbl> <dbl> <dbl>
##  1   0.2 Very Good E     VS2      63.4    59   367  3.74  3.71  2.36
##  2   0.2 Premium   F     VS2      62.6    59   367  3.73  3.71  2.33
##  3   0.2 Premium   D     VS2      62.3    60   367  3.73  3.68  2.31
##  4   0.2 Ideal     E     VS2      62.2    57   367  3.76  3.73  2.33
##  5   0.2 Premium   D     VS2      61.7    60   367  3.77  3.72  2.31
##  6   0.2 Ideal     D     VS2      61.5    57   367  3.81  3.77  2.33
##  7   0.2 Premium   E     VS2      61.1    59   367  3.81  3.78  2.32
##  8   0.2 Premium   E     SI2      60.2    62   345  3.79  3.75  2.27
##  9   0.2 Premium   E     VS2      59.8    62   367  3.79  3.77  2.26
## 10   0.2 Premium   E     VS2      59.7    62   367  3.84  3.8   2.28
## # ... with 53,930 more rows

arrange(diamonds, desc(carat), depth)

## # A tibble: 53,940 x 10
##    carat cut       color clarity depth table price     x     y     z
##    <dbl> <ord>     <ord> <ord>   <dbl> <dbl> <int> <dbl> <dbl> <dbl>
##  1  5.01 Fair      J     I1       65.5    59 18018 10.7  10.5   6.98
##  2  4.5  Fair      J     I1       65.8    58 18531 10.2  10.2   6.72
##  3  4.13 Fair      H     I1       64.8    61 17329 10     9.85  6.43
##  4  4.01 Premium   I     I1       61      61 15223 10.1  10.1   6.17
##  5  4.01 Premium   J     I1       62.5    62 15223 10.0   9.94  6.24
##  6  4    Very Good I     I1       63.3    58 15984 10.0   9.94  6.31
##  7  3.67 Premium   I     I1       62.4    56 16193  9.86  9.81  6.13
##  8  3.65 Fair      H     I1       67.1    53 11668  9.53  9.48  6.38
##  9  3.51 Premium   J     VS2      62.5    59 18701  9.66  9.63  6.03
## 10  3.5  Ideal     H     I1       62.8    57 12587  9.65  9.59  6.03
## # ... with 53,930 more rows
…
## # A tibble: 1 x 2
##   promedio_depth mediana_price
##            <dbl>         <dbl>
## 1           61.7          2401

# Calcular el promedio de depth y la mediana de price y asignarlos a las variables
# "promedio_depth" y "mediana_price", por nivel de "cut"
# Primero agrupo por la variable de interés
diamonds_agrupado <- group_by(diamonds, cut)
diamonds_agrupado

## # A tibble: 53,940 x 10
## # Groups:   cut [5]
##    carat cut       color clarity depth table price     x     y     z
##    <dbl> <ord>     <ord> <ord>   <dbl> <dbl> <int> <dbl> <dbl> <dbl>
##  1 0.23  Ideal     E     SI2      61.5    55   326  3.95  3.98  2.43
##  2 0.21  Premium   E     SI1      59.8    61   326  3.89  3.84  2.31
##  3 0.23  Good      E     VS1      56.9    65   327  4.05  4.07  2.31
##  4 0.290 Premium   I     VS2      62.4    58   334  4.2   4.23  2.63
##  5 0.31  Good      J     SI2      63.3    58   335  4.34  4.35  2.75
##  6 0.24  Very Good J     VVS2     62.8    57   336  3.94  3.96  2.48
##  7 0.24  Very Good I     VVS1     62.3    57   336  3.95  3.98  2.47
##  8 0.26  Very Good H     SI1      61.9    55   337  4.07  4.11  2.53
##  9 0.22  Fair      E     VS2      65.1    61   337  3.87  3.78  2.49
## 10 0.23  Very Good H     VS1      59.4    61   338  4     4.05  2.39
## # ... with 53,930 more rows
…
